…
Top_contributors_cities <- inner_join(contributors_cities,Top_10)

Top_10_cities <- Top_contributors_cities %>%
          group_by(cand_nm,primary_city) %>% 
          summarize(raised=sum(contb_receipt_amt))%>% #sum their total amount raised
          arrange(desc(raised)) %>% #descending order
          slice(1:10) 

Top_10_cities

## # A tibble: 100 x 3
## # Groups:   cand_nm [10]
##    cand_nm   primary_city       raised
##    <chr>     <chr>               <dbl>
##  1 Bush, Jeb Los Angeles       357668.
##  2 Bush, Jeb San Francisco     315167 
##  3 Bush, Jeb Santa Barbara     168300 
##  4 Bush, Jeb Pasadena          142176 
##  5 Bush, Jeb Newport Beach     134050 
##  6 Bush, Jeb Beverly Hills     108040 
##  7 Bush, Jeb Santa Monica       86100 
##  8 Bush, Jeb San Diego          84202 
##  9 Bush, Jeb Pacific Palisades  81900 
## 10 Bush, Jeb Palo Alto          65910 
## # ... with 90 more rows
…
